…
The plots again seem to support the claims in the the Buzzfeed article.
Most of the US-based Nobel laureates were born in the US, but there are
still sizable groups of Nobel laureates who were awarded in the US but
were born in other countries.

### Exercise 6

``` r
nobel_living_science %>%
  filter(country == "USA") %>%
  filter(born_country != "USA") %>%
  count(born_country, sort = TRUE)
```

    ## # A tibble: 21 × 2
    ##    born_country       n
    ##    <chr>          <int>
    ##  1 Germany            7
    ##  2 United Kingdom     7
    ##  3 China              5
    ##  4 Canada             4
    ##  5 Japan              3
    ##  6 Australia          2
    ##  7 Israel             2
    ##  8 Norway             2
    ##  9 Austria            1
    ## 10 Finland            1
    ## # ℹ 11 more rows
…
